milespeewee.flac sax

zeros source sep = 55.375320
zeros locked = 51.614028
zeros self sim = 6.032310

position = 0.000000
width = 0.200000
channel = 2.000000

phase threshold= 0.100000
Neighbours = 3.000000
Similarity Threshold = 0.500000

